<svg width="14" height="14" viewBox="0 0 14 14" fill="none" xmlns="http://www.w3.org/2000/svg">
<path d="M1.07692 14L0 12.9231L5.92308 7L0 1.07692L1.07692 0L7 5.92308L12.9231 0L14 1.07692L8.07692 7L14 12.9231L12.9231 14L7 8.07692L1.07692 14Z" fill="#707070"/>
</svg>
