<svg width="12" height="12" viewBox="0 0 12 12" fill="none" xmlns="http://www.w3.org/2000/svg">
<g clip-path="url(#clip0_2209_995)">
<path d="M11.1818 4.91797H0.818182C0.366544 4.91797 0 5.28451 0 5.73615V6.28157C0 6.73321 0.366544 7.09975 0.818182 7.09975H11.1818C11.6334 7.09975 12 6.73321 12 6.28157V5.73615C12 5.28451 11.6334 4.91797 11.1818 4.91797Z" fill="#6D6E6F"/>
</g>
<defs>
<clipPath id="clip0_2209_995">
<rect width="12" height="12" fill="white"/>
</clipPath>
</defs>
</svg>
