{
  "$schema": "../../node_modules/ng-packagr/ng-package.schema.json",
  "dest": "../../dist/workspace-library",
  "lib": {
    "entryFile": "src/public-api.ts"
  },
  "assets": [
    "./src/assets",
    "./src/assets/styles.css"
  ]
}